Mini-Project #01: Gourmet Cheeseburgers Across the Globe: Exploring the Most Popular Programming on Netflix – STA 9750 Submission Material
…
Netflix operates in 94 countries.

COUNTRY_TOP_10 |>
    group_by(country_name) |>
    summarize(number = n())

# A tibble: 94 × 2
   country_name number
   <chr>         <int>
 1 Argentina      4440
 2 Australia      4440
 3 Austria        4440
 4 Bahamas        4440
 5 Bahrain        4440
 6 Bangladesh     4440
 7 Belgium        4440
 8 Bolivia        4440
 9 Brazil         4440
10 Bulgaria       4440
# ℹ 84 more rows
…
